{
    "name" : "nominatim",
    "title" : "Nominatim Proxy",
    "description" : "A proxy for accessing Nominatim (https://nominatim.openstreetmap.org) an OpenStreetMap api to search by name and address, aka geocoding and reverse geocoding. This API can be used icw a tool like leaflet-geosearch. The purpose of this proxy is to enforce the privacy of wmflabs users. Please do not abuse it for mass lookups and the like or we might ALL loose our access and that would be unfortunate.",
    "url" : "http://tools.wmflabs.org/nominatim/",
    "keywords" : "address, geocoding, maps, openstreetmap, reverse geocoding, search",
    "author" : "Derk-Jan Hartman",
    "repository" : "https://phabricator.wikimedia.org/source/tool-nominatim/"
}
